<?xml version="1.0" encoding="UTF-8"?>
<svg width="12px" height="9px" viewBox="0 0 12 9" version="1.1" xmlns="http://www.w3.org/2000/svg" xmlns:xlink="http://www.w3.org/1999/xlink">
    <!-- Generator: Sketch 40.2 (33826) - http://www.bohemiancoding.com/sketch -->
    <title>dropdown menu</title>
    <desc>Created with Sketch.</desc>
    <defs></defs>
    <g id="Page-1" stroke="none" stroke-width="1" fill="none" fill-rule="evenodd">
        <g id="Listings-Medicines-cat-3" transform="translate(-306.000000, -159.000000)" fill="#1F5169">
            <g id="dropdown-menu" transform="translate(306.000000, 159.000000)">
                <g id="Icon-24px">
                    <polygon id="Shape" points="1.41 0.84 6 5.42 10.59 0.84 12 2.25 6 8.25 0 2.25"></polygon>
                </g>
            </g>
        </g>
    </g>
</svg>