<?xml version="1.0" encoding="UTF-8"?>
<svg width="13px" height="13px" viewBox="0 0 13 13" version="1.1" xmlns="http://www.w3.org/2000/svg" xmlns:xlink="http://www.w3.org/1999/xlink">
    <!-- Generator: Sketch 40.2 (33826) - http://www.bohemiancoding.com/sketch -->
    <title>edit photo icon </title>
    <desc>Created with Sketch.</desc>
    <defs></defs>
    <g id="Page-1" stroke="none" stroke-width="1" fill="none" fill-rule="evenodd">
        <g id="Edit-Profile" transform="translate(-212.000000, -160.000000)">
            <g id="edit-photo-icon-" transform="translate(210.000000, 158.000000)">
                <g id="Icon-24px">
                    <path d="M2.125,12.21875 L2.125,14.875 L4.78125,14.875 L12.6154167,7.04083333 L9.95916667,4.38458333 L2.125,12.21875 L2.125,12.21875 Z M14.6695833,4.98666667 C14.9458333,4.71041667 14.9458333,4.26416667 14.6695833,3.98791667 L13.0120833,2.33041667 C12.7358333,2.05416667 12.2895833,2.05416667 12.0133333,2.33041667 L10.7170833,3.62666667 L13.3733333,6.28291667 L14.6695833,4.98666667 L14.6695833,4.98666667 Z" id="Shape" fill="#FFFFFF"></path>
                    <polygon id="Shape" points="0 0 17 0 17 17 0 17"></polygon>
                </g>
            </g>
        </g>
    </g>
</svg>