<?xml version="1.0" encoding="UTF-8"?>
<svg width="11px" height="11px" viewBox="0 0 11 11" version="1.1" xmlns="http://www.w3.org/2000/svg" xmlns:xlink="http://www.w3.org/1999/xlink">
    <!-- Generator: Sketch 40.2 (33826) - http://www.bohemiancoding.com/sketch -->
    <title>half star</title>
    <desc>Created with Sketch.</desc>
    <defs></defs>
    <g id="Page-1" stroke="none" stroke-width="1" fill="none" fill-rule="evenodd">
        <g id="My-PHARMACIES-List-" transform="translate(-188.000000, -198.000000)">
            <g id="Group-4" transform="translate(20.000000, 147.000000)">
                <g id="Group-2" transform="translate(117.000000, 31.000000)">
                    <g id="Group" transform="translate(0.000000, 20.000000)">
                        <g id="half-star" transform="translate(51.000000, 0.000000)">
                            <path d="M5.83529748,8.97100535 L3.28627429,10.3317929 C2.79798853,10.5924626 2.48374085,10.370399 2.58531188,9.83086272 L3.11337601,7.02583318 L1.0099289,5.06181659 C0.60699681,4.68559352 0.724603934,4.32300423 1.27767272,4.25129455 L4.1530575,3.87847849 L5.40207888,1.30386195 C5.64133891,0.810673584 6.0282718,0.80864473 6.26851608,1.30386195 L7.51753747,3.87847849 L10.3929222,4.25129455 C10.9437252,4.32271045 11.0652557,4.68404583 10.6606661,5.06181659 L8.55721895,7.02583318 L9.08528309,9.83086272 C9.18643799,10.3681885 8.87461511,10.5935349 8.38432067,10.3317929 L5.83529748,8.97100535 Z" id="Star-Copy-4" fill="#F9F9F9"></path>
                            <path d="M6.48148148,1.74284903 L6.26851608,1.30386195 C6.0282718,0.80864473 5.64133891,0.810673584 5.40207888,1.30386195 L4.1530575,3.87847849 L1.27767272,4.25129455 C0.724603934,4.32300423 0.60699681,4.68559352 1.0099289,5.06181659 L3.11337601,7.02583318 L2.58531188,9.83086272 C2.48374085,10.370399 2.79798853,10.5924626 3.28627429,10.3317929 L5.83529748,8.97100535 L6.48148148,9.31596853 L6.48148148,1.74284903 Z" id="Combined-Shape" fill="#DDD960"></path>
                        </g>
                    </g>
                </g>
            </g>
        </g>
    </g>
</svg>