<?xml version="1.0" encoding="UTF-8"?>
<svg width="85px" height="91px" viewBox="0 0 85 91" version="1.1" xmlns="http://www.w3.org/2000/svg" xmlns:xlink="http://www.w3.org/1999/xlink">
    <!-- Generator: Sketch 40.2 (33826) - http://www.bohemiancoding.com/sketch -->
    <title>logo icon</title>
    <desc>Created with Sketch.</desc>
    <defs></defs>
    <g id="Page-1" stroke="none" stroke-width="1" fill="none" fill-rule="evenodd" opacity="0.420799366">
        <g id="Loading-Screen" transform="translate(-138.000000, -236.000000)" fill="#FFFFFF">
            <path d="M204.440064,304.326719 L209.235336,308.887994 L210.47932,307.580177 C217.98739,299.687112 222.094504,289.339078 222.044171,278.442384 C221.937173,255.39068 203.097581,236.636921 180.04821,236.636921 L179.85038,236.637254 C156.69201,236.744586 137.938251,255.672843 138.045083,278.831379 C138.089582,288.42509 141.281041,297.442807 147.274464,304.909378 C152.688062,311.653125 160.126299,316.602728 168.376527,318.991531 L160.988455,326.368603 L169.870008,326.387602 L190.554909,305.738867 L199.55996,314.732752 L209.288835,314.710252 L195.400847,300.90143 L203.409577,292.906699 L203.411077,284.008646 L190.937571,296.46382 L182.509346,288.083761 L183.252336,287.883097 C191.2199,285.733291 196.784496,278.491884 196.784496,270.273489 C196.784496,260.214952 188.578434,252.031723 178.491564,252.031723 L166.705382,252.031723 C165.241567,252.031723 163.824085,252.544883 162.699766,253.482038 L157.709164,257.640651 C156.932507,258.287976 157.390168,259.552127 158.401155,259.552127 L178.491564,259.552127 C184.321656,259.552127 189.065095,264.320066 189.065095,270.180824 C189.065095,275.91875 184.409488,280.672023 178.687061,280.776521 L175.151107,280.84102 L175.224439,280.914353 L175.151107,290.354565 L186.102299,301.291925 L173.395796,313.979595 L173.518961,313.465935 L171.76365,313.045274 C164.199747,311.231964 157.335669,306.871186 152.435565,300.766431 C147.388296,294.478679 144.700497,286.883109 144.662998,278.800713 C144.572999,259.291297 160.371963,243.345668 179.882379,243.255336 L180.047377,243.254836 C199.465628,243.254836 215.336424,259.053633 215.426256,278.473051 C215.468589,287.652766 212.008967,296.369988 205.684215,303.018902 L204.440064,304.326719 Z" id="logo-icon"></path>
        </g>
    </g>
</svg>