<?xml version="1.0" encoding="UTF-8"?>
<svg width="22px" height="17px" viewBox="0 0 22 17" version="1.1" xmlns="http://www.w3.org/2000/svg" xmlns:xlink="http://www.w3.org/1999/xlink">
    <!-- Generator: Sketch 40.3 (33839) - http://www.bohemiancoding.com/sketch -->
    <title>mail icon</title>
    <desc>Created with Sketch.</desc>
    <defs></defs>
    <g id="Page-1" stroke="none" stroke-width="1" fill="none" fill-rule="evenodd">
        <g id="Sign-up-screen" transform="translate(-289.000000, -205.000000)" stroke="#D5D5D5">
            <g id="mail-icon" transform="translate(290.000000, 205.500000)">
                <path d="M19.1946957,15 L0.805130435,15 C0.526869565,15 0.434695652,14.5602857 0.434695652,14.2847143 L0.434695652,0.715285714 C0.434695652,0.600857143 0.406,0.495428571 0.471652174,0.411 C0.496,0.379285714 0.490347826,0.458142857 0.521217391,0.433285714 C0.608173913,0.363428571 0.685130435,0.428571429 0.805130435,0.428571429 L19.1946957,0.428571429 C19.4733913,0.428571429 19.5651304,0.439714286 19.5651304,0.715285714 L19.5651304,14.2847143 C19.5651304,14.5602857 19.4733913,15 19.1946957,15 L19.1946957,15 Z" id="Stroke-98" stroke-width="1.73913043"></path>
                <path d="M0.403782609,0.410828571 L7.94204348,7.68368571 C9.12465217,8.78254286 11.0133478,8.77482857 12.1855217,7.66654286 L19.6285652,0.4614" id="Stroke-100" stroke-width="1.78434783"></path>
                <path d="M19.6286087,14.5384286 L13.5046957,6.38957143" id="Stroke-102" stroke-width="1.78434783"></path>
                <path d="M0.371391304,14.5384286 L6.62226087,6.38957143" id="Stroke-104" stroke-width="1.78434783"></path>
            </g>
        </g>
    </g>
</svg>