<?xml version="1.0" encoding="UTF-8"?>
<svg width="28px" height="30px" viewBox="0 0 28 30" version="1.1" xmlns="http://www.w3.org/2000/svg" xmlns:xlink="http://www.w3.org/1999/xlink">
    <!-- Generator: sketchtool 41.2 (35397) - http://www.bohemiancoding.com/sketch -->
    <title>2E4BFB30-A3DB-481A-B16A-BF79A69D4B4D</title>
    <desc>Created with sketchtool.</desc>
    <defs></defs>
    <g id="Page-1" stroke="none" stroke-width="1" fill="none" fill-rule="evenodd">
        <g id="Slide-menu" transform="translate(-256.000000, -116.000000)">
            <g id="My-meds-icon" transform="translate(256.000000, 116.000000)">
                <g id="Icon-24px">
                    <polygon id="Shape" fill="#15CB61" points="27.125 6.20071685 23.275 6.20071685 24.9375 1.69892473 21.5104167 0.465949821 19.38125 6.20071685 0.875 6.20071685 0.875 9.06810036 3.79166667 17.6702509 0.875 26.2724014 0.875 29.1397849 27.125 29.1397849 27.125 26.2724014 24.2083333 17.6702509 27.125 9.06810036"></polygon>
                    <path d="M19.0761948,19.5845875 C18.1773414,21.0167887 16.566642,21.9713262 14.7291667,21.9713262 C11.9102133,21.9713262 9.625,19.7247263 9.625,16.953405 C9.625,14.1820837 11.9102133,11.9354839 14.7291667,11.9354839 C15.0122631,11.9354839 15.2899765,11.9581417 15.560533,12.0017134 C13.5110123,12.3589969 11.954559,14.1190847 11.954559,16.2365591 C11.954559,18.6119774 13.9133132,20.5376344 16.329559,20.5376344 C17.369842,20.5376344 18.3253235,20.1806907 19.0761948,19.5845875 Z" id="Combined-Shape" fill="#F8F8F8"></path>
                </g>
            </g>
        </g>
    </g>
</svg>