<?xml version="1.0" encoding="UTF-8"?>
<svg width="15px" height="15px" viewBox="0 0 15 15" version="1.1" xmlns="http://www.w3.org/2000/svg" xmlns:xlink="http://www.w3.org/1999/xlink">
    <!-- Generator: Sketch 40.2 (33826) - http://www.bohemiancoding.com/sketch -->
    <title>Minimum Charge icon@2x</title>
    <desc>Created with Sketch.</desc>
    <defs></defs>
    <g id="Page-1" stroke="none" stroke-width="1" fill="none" fill-rule="evenodd">
        <g id="My-PHARMACIES-List-" transform="translate(-202.000000, -221.000000)" fill="#6B6B6B">
            <g id="Group-4" transform="translate(20.000000, 147.000000)">
                <g id="Group-2" transform="translate(117.000000, 31.000000)">
                    <g id="Minimum-Charge-icon" transform="translate(65.000000, 43.000000)">
                        <g id="Icon-24px">
                            <path d="M3.75,6.75 L3.75,8.25 L11.25,8.25 L11.25,6.75 L3.75,6.75 L3.75,6.75 Z M7.5,0 C3.36,0 0,3.36 0,7.5 C0,11.64 3.36,15 7.5,15 C11.64,15 15,11.64 15,7.5 C15,3.36 11.64,0 7.5,0 L7.5,0 Z M7.5,13.5 C4.1925,13.5 1.5,10.8075 1.5,7.5 C1.5,4.1925 4.1925,1.5 7.5,1.5 C10.8075,1.5 13.5,4.1925 13.5,7.5 C13.5,10.8075 10.8075,13.5 7.5,13.5 L7.5,13.5 Z" id="Shape"></path>
                        </g>
                    </g>
                </g>
            </g>
        </g>
    </g>
</svg>