<?xml version="1.0" encoding="UTF-8"?>
<svg width="15px" height="20px" viewBox="0 0 15 20" version="1.1" xmlns="http://www.w3.org/2000/svg" xmlns:xlink="http://www.w3.org/1999/xlink">
    <!-- Generator: Sketch 40.3 (33839) - http://www.bohemiancoding.com/sketch -->
    <title>Mobile icon</title>
    <desc>Created with Sketch.</desc>
    <defs></defs>
    <g id="Page-1" stroke="none" stroke-width="1" fill="none" fill-rule="evenodd">
        <g id="Sign-up-screen" transform="translate(-292.000000, -257.000000)" fill="#D5D5D5">
            <g id="Mobile-icon" transform="translate(292.642857, 257.000000)">
                <path d="M12.5,20 L1.66666667,20 C0.746192084,20 -1.13686838e-13,19.2538079 -1.13686838e-13,18.3333333 L-1.13686838e-13,1.66666667 C-1.13686838e-13,0.746192084 0.746192084,0 1.66666667,0 L12.5,0 C13.4204746,0 14.1666667,0.746192084 14.1666667,1.66666667 L14.1666667,18.3333333 C14.1666667,19.2538079 13.4204746,20 12.5,20 L12.5,20 Z M12.5,1.66666667 L1.66666667,1.66666667 L1.66666667,18.3333333 L12.5,18.3333333 L12.5,1.66666667 L12.5,1.66666667 Z M4.16666667,3.33333333 L10,3.33333333 C10.4602373,3.33333333 10.8333333,3.70642938 10.8333333,4.16666667 L10.8333333,13.3333333 C10.8333333,13.7935706 10.4602373,14.1666667 10,14.1666667 L4.16666667,14.1666667 C3.70642938,14.1666667 3.33333333,13.7935706 3.33333333,13.3333333 L3.33333333,4.16666667 C3.33333333,3.70642938 3.70642938,3.33333333 4.16666667,3.33333333 L4.16666667,3.33333333 Z M5,12.5 L9.16666667,12.5 L9.16666667,5 L5,5 L5,12.5 L5,12.5 Z M7.08333333,15 C7.77368927,15 8.33333333,15.5596441 8.33333333,16.25 C8.33333333,16.9403559 7.77368927,17.5 7.08333333,17.5 C6.3929774,17.5 5.83333333,16.9403559 5.83333333,16.25 C5.83333333,15.5596441 6.3929774,15 7.08333333,15 L7.08333333,15 Z" id="iphone"></path>
            </g>
        </g>
    </g>
</svg>