<?xml version="1.0" encoding="UTF-8"?>
<svg width="11px" height="11px" viewBox="0 0 11 11" version="1.1" xmlns="http://www.w3.org/2000/svg" xmlns:xlink="http://www.w3.org/1999/xlink">
    <!-- Generator: Sketch 40.2 (33826) - http://www.bohemiancoding.com/sketch -->
    <title>Plus icon@2x</title>
    <desc>Created with Sketch.</desc>
    <defs></defs>
    <g id="Page-1" stroke="none" stroke-width="1" fill="none" fill-rule="evenodd">
        <g id="Cart-view-2" transform="translate(-254.000000, -200.000000)" fill="#D5D5D5">
            <g id="Group" transform="translate(259.000000, 232.500000) rotate(-90.000000) translate(-259.000000, -232.500000) translate(220.500000, 215.500000)">
                <g id="ic_add" transform="translate(60.000000, 12.000000)">
                    <g id="Plus-icon" transform="translate(0.000000, 0.000000)">
                        <polygon id="plus-icon" points="10.5 6 6 6 6 10.5 4.5 10.5 4.5 6 2.84217094e-13 6 2.84217094e-13 4.5 4.5 4.5 4.5 0 6 0 6 4.5 10.5 4.5"></polygon>
                    </g>
                </g>
            </g>
        </g>
    </g>
</svg>