<?xml version="1.0" encoding="UTF-8"?>
<svg width="46px" height="60px" viewBox="0 0 46 60" version="1.1" xmlns="http://www.w3.org/2000/svg" xmlns:xlink="http://www.w3.org/1999/xlink">
    <!-- Generator: Sketch 40.2 (33826) - http://www.bohemiancoding.com/sketch -->
    <title>ROSHETTA PIN ICON</title>
    <desc>Created with Sketch.</desc>
    <defs>
        <filter x="-50%" y="-50%" width="200%" height="200%" filterUnits="objectBoundingBox" id="filter-1">
            <feOffset dx="0" dy="2" in="SourceAlpha" result="shadowOffsetOuter1"></feOffset>
            <feGaussianBlur stdDeviation="2" in="shadowOffsetOuter1" result="shadowBlurOuter1"></feGaussianBlur>
            <feColorMatrix values="0 0 0 0 0   0 0 0 0 0   0 0 0 0 0  0 0 0 0.252349411 0" type="matrix" in="shadowBlurOuter1" result="shadowMatrixOuter1"></feColorMatrix>
            <feMerge>
                <feMergeNode in="shadowMatrixOuter1"></feMergeNode>
                <feMergeNode in="SourceGraphic"></feMergeNode>
            </feMerge>
        </filter>
    </defs>
    <g id="Page-1" stroke="none" stroke-width="1" fill="none" fill-rule="evenodd">
        <g id="Locate-Me-" transform="translate(-157.000000, -292.000000)">
            <g id="ROSHETTA-PIN-ICON" filter="url(#filter-1)" transform="translate(161.000000, 294.000000)">
                <path d="M38,18.8767123 C38,29.302 19,52 19,52 C19,52 0,29.302 0,18.8767123 C0,8.45142466 8.50662264,0 19,0 C29.4933774,0 38,8.45142466 38,18.8767123" id="Fill-1" fill="#249E50"></path>
                <path d="M19.0008962,8.04272603 L18.9496321,8.04272603 C12.9495755,8.07050685 8.09059434,12.9428356 8.11819811,18.9039589 C8.12966981,21.3736027 8.95670755,23.694726 10.5096887,25.616589 C11.8751792,27.3069452 13.7386132,28.5570822 15.8085377,29.1896301 L13.6866321,31.2945616 L16.4283679,31.3002603 L21.8333302,25.9396301 L24.0563302,28.1453562 L26.5768774,28.1393014 L23.0891226,24.6941233 L25.2092358,22.5913288 L25.2099528,19.8631096 L21.7118019,23.3335753 L19.6386509,21.2856301 L19.8311604,21.2339863 C21.8953491,20.6805068 23.3371981,18.8166986 23.3371981,16.7010822 C23.3371981,14.1117671 21.2109906,12.005411 18.5975943,12.005411 L15.5439717,12.005411 C15.1646887,12.005411 14.7972358,12.1375479 14.5061415,12.3786712 L13.213066,13.4493014 C13.0119528,13.6159863 13.1302547,13.9411644 13.3923113,13.9411644 L18.5975943,13.9411644 C20.1082736,13.9411644 21.3371792,15.1685068 21.3371792,16.6772192 C21.3371792,18.1542329 20.1308585,19.3776575 18.6481415,19.404726 L17.7321981,19.4211096 L17.7511981,19.4403425 L17.7321981,21.8700959 L20.4592358,24.5762329 L17.2131038,27.7963151 L16.8542547,27.7108356 C14.8947453,27.2442603 13.1162736,26.1216301 11.8468585,24.5502329 C10.5390849,22.9318219 9.84289623,20.9764795 9.83285849,18.8961233 C9.8095566,13.8742055 13.9031604,9.76976712 18.9578774,9.74626027 L19.0005377,9.74626027 C24.0315943,9.74626027 28.1438396,13.8129452 28.166783,18.8117123 C28.1778962,21.1745068 27.2816698,23.4183425 25.6430094,25.1300685 L25.3207264,25.4666438 L26.5628962,26.6409178 L26.8851792,26.3039863 C28.8303491,24.2724247 29.8947075,21.6086712 29.8818019,18.8038767 C29.8538396,12.8701781 24.9726321,8.04272603 19.0008962,8.04272603" id="Fill-3" fill="#fff"></path>
            </g>
        </g>
    </g>
</svg>