<?xml version="1.0" encoding="UTF-8"?>
<svg width="72px" height="54px" viewBox="0 0 72 54" version="1.1" xmlns="http://www.w3.org/2000/svg" xmlns:xlink="http://www.w3.org/1999/xlink">
    <!-- Generator: Sketch 40.2 (33826) - http://www.bohemiancoding.com/sketch -->
    <title>True ( correct ) confirmation icon@2x</title>
    <desc>Created with Sketch.</desc>
    <defs></defs>
    <g id="Page-1" stroke="none" stroke-width="1" fill="none" fill-rule="evenodd">
        <g id="success-message" transform="translate(-145.000000, -216.000000)" fill="#15CB61">
            <polygon id="True-(-correct-)-confirmation-icon" points="170.507266 269.157143 145 243.649877 152.193049 236.456828 170.507266 254.72003 209.227296 216 216.420345 223.244064"></polygon>
        </g>
    </g>
</svg>