<?xml version="1.0" encoding="UTF-8"?>
<svg width="10px" height="10px" viewBox="0 0 10 10" version="1.1" xmlns="http://www.w3.org/2000/svg" xmlns:xlink="http://www.w3.org/1999/xlink">
    <!-- Generator: Sketch 40.2 (33826) - http://www.bohemiancoding.com/sketch -->
    <title>x icon gray</title>
    <desc>Created with Sketch.</desc>
    <defs></defs>
    <g id="Page-1" stroke="none" stroke-width="1" fill="none" fill-rule="evenodd">
        <g id="success-message" transform="translate(-303.000000, -185.000000)" fill="#6B6B6B">
            <polygon id="x-icon-gray" points="313 186.007143 311.992857 185 308 188.992857 304.007143 185 303 186.007143 306.992857 190 303 193.992857 304.007143 195 308 191.007143 311.992857 195 313 193.992857 309.007143 190"></polygon>
        </g>
    </g>
</svg>